<?xml version="1.0" encoding="UTF-8" standalone="no"?>
<svg
   xmlns:dc="http://purl.org/dc/elements/1.1/"
   xmlns:cc="http://creativecommons.org/ns#"
   xmlns:rdf="http://www.w3.org/1999/02/22-rdf-syntax-ns#"
   xmlns:svg="http://www.w3.org/2000/svg"
   xmlns="http://www.w3.org/2000/svg"
   id="svg37"
   xml:space="preserve"
   viewBox="158 -16.5 600 600"
   height="600"
   width="600"
   version="1.1"><metadata
   id="metadata41"><rdf:RDF><cc:Work
       rdf:about=""><dc:format>image/svg+xml</dc:format><dc:type
         rdf:resource="http://purl.org/dc/dcmitype/StillImage" /></cc:Work></rdf:RDF></metadata>
<desc
   id="desc2">Created by Logonomy.ir</desc>
<defs
   id="defs4">
</defs>


<g
   id="62761221-bbe5-4db8-ad50-0f7b9d2dced5"
   transform="matrix(2.1,0,0,2.1,459.5,236.95)">
<g
   id="g29"
   style="vector-effect:non-scaling-stroke">
		<g
   id="Layer_1"
   transform="translate(-2.9,-42.99)">
<path
   id="path6"
   d="m 91.7,42.1 c -1.5,0 -2.8,-0.6 -3.9,-1.8 -1,-1 -1.5,-2.4 -1.4,-4 0,-0.3 0,-0.5 0,-0.7 0,-0.2 0,-0.4 0,-0.7 0,-3.8 -1.3,-7.1 -3.9,-9.9 l -0.8,-0.8 c -1.4,-1.3 -2.9,-2.2 -4.5,-2.9 -1.6,-0.6 -3.4,-0.9 -5.3,-0.9 -2.1,0 -4,0.3 -5.6,1 -1.7,0.7 -3.2,1.8 -4.6,3.2 -1.5,1.5 -2.5,3 -3.2,4.7 -0.7,1.6 -1.1,3.5 -1.1,5.7 0,2 0.3,3.8 1.1,5.6 0.7,1.7 1.7,3.3 3.1,4.7 1.2,1.2 1.7,2.5 1.6,3.9 0,1.5 -0.5,2.8 -1.6,3.9 -1.1,1.1 -2.4,1.6 -3.9,1.6 -1.5,0.1 -2.8,-0.4 -4,-1.5 -5,-5 -7.4,-11 -7.4,-18.2 0,-7.1 2.6,-13.1 7.6,-18.1 C 59,11.8 65,9.3 72.1,9.3 c 6.7,0.1 12.5,2.4 17.5,6.9 l 0.1,0.1 0.9,0.9 0.1,0.1 c 2.4,2.5 4.2,5.2 5.3,8.2 1.1,3 1.8,6.1 1.9,9.6 0,0.9 -0.1,1.5 -0.2,2 0,0.8 -0.1,1.5 -0.4,2.1 -0.3,0.6 -0.8,1.2 -1.4,1.7 -1.3,1 -2.6,1.5 -4.2,1.2 z"
   transform="translate(-72.1,-32.01)"
   style="opacity:1;fill:#170029;fill-rule:nonzero;stroke:none;stroke-width:1;stroke-linecap:butt;stroke-linejoin:miter;stroke-miterlimit:4;stroke-dasharray:none;stroke-dashoffset:0" />
</g>
		<g
   id="g11"
   transform="translate(28.68,4.4)">
<path
   id="path9"
   d="m 140.8,69.6 c -1.3,-3.2 -3.1,-6 -5.6,-8.5 -5,-5 -11.1,-7.5 -18.2,-7.5 -6.5,-0.1 -12.3,2 -17.2,6.4 l -1,1 -0.8,1 c -1.8,2.1 -3,3.9 -3.6,5.5 -0.6,1.6 -0.7,3 -0.4,4.1 0.3,1.1 0.9,2 1.8,2.6 0.9,0.6 1.9,0.9 2.9,1 1.1,0.1 2.1,-0.1 3.1,-0.6 1,-0.5 1.8,-1.2 2.4,-2.2 0.4,-0.8 1,-1.7 1.9,-2.7 l 0.6,-0.6 0.8,-0.8 c 2.5,-2.3 5.6,-3.4 9.4,-3.3 4.1,0 7.6,1.4 10.3,4.2 1.4,1.4 2.5,3 3.2,4.8 0.7,1.8 1.1,3.6 1.1,5.5 0,1.9 -0.4,3.7 -1.1,5.5 -0.7,1.8 -1.8,3.4 -3.2,4.8 -2.9,2.9 -6.3,4.3 -10.3,4.2 -3.9,0.1 -7.2,-1.2 -10,-4 L 91,73.7 C 90.3,73 89.6,72.6 88.9,72.3 88.7,72 88.4,71.6 88.1,71.3 L 73.9,57.1 c -1,-1 -2.4,-1.5 -4,-1.5 -1.6,0 -2.9,0.5 -3.9,1.5 -1.2,1.2 -1.7,2.5 -1.5,4 0,1.6 0.5,2.9 1.5,4 l 14.3,14.3 c 0.6,0.6 1.1,1 1.8,1.2 0.3,0.4 0.6,0.8 1,1.2 L 99.3,98 c 2.5,2.4 5.3,4.1 8.2,5.4 2.9,1.2 6.2,1.8 9.7,1.8 7,0 13.1,-2.5 18.1,-7.6 2.5,-2.5 4.4,-5.4 5.7,-8.5 1.2,-3.2 1.9,-6.4 1.9,-9.6 -0.2,-3.5 -0.8,-6.7 -2.1,-9.9 z"
   transform="translate(-103.68,-79.4)"
   style="opacity:1;fill:#23003d;fill-rule:nonzero;stroke:none;stroke-width:1;stroke-linecap:butt;stroke-linejoin:miter;stroke-miterlimit:4;stroke-dasharray:none;stroke-dashoffset:0" />
</g>
		<g
   id="g15"
   transform="translate(14.35,-24.49)">
<path
   id="path13"
   d="M 89.5,56.3 C 88,56.4 86.7,55.8 85.6,54.7 l -0.4,-0.4 c -1.1,-1.1 -1.6,-2.4 -1.7,-4 0.1,-1.5 0.7,-2.8 1.7,-3.9 1,-1 2.3,-1.6 3.9,-1.7 1.6,0.1 2.9,0.7 4,1.8 l 0.4,0.4 c 1.1,1.1 1.7,2.4 1.7,3.8 -0.1,1.6 -0.6,3 -1.7,4 -1.1,1 -2.5,1.6 -4,1.6 z"
   transform="translate(-89.35,-50.51)"
   style="opacity:1;fill:#170029;fill-rule:nonzero;stroke:none;stroke-width:1;stroke-linecap:butt;stroke-linejoin:miter;stroke-miterlimit:4;stroke-dasharray:none;stroke-dashoffset:0" />
</g>
		<g
   id="g19"
   transform="translate(-0.7,45.69)">
<path
   id="path17"
   d="m 54.7,110.5 c 1.5,0 2.8,0.6 3.9,1.8 1,1 1.5,2.4 1.4,4 0,0.3 0,0.5 0,0.7 0,0.2 0,0.4 0,0.7 0,3.8 1.3,7.1 3.9,9.9 l 0.8,0.8 c 1.4,1.3 2.9,2.2 4.5,2.9 1.6,0.6 3.4,0.9 5.3,0.9 2.1,0 4,-0.3 5.6,-1 1.7,-0.7 3.2,-1.8 4.6,-3.2 1.5,-1.5 2.5,-3 3.2,-4.7 0.7,-1.6 1.1,-3.5 1.1,-5.7 0,-2 -0.4,-3.8 -1.1,-5.5 -0.7,-1.7 -1.7,-3.3 -3.1,-4.7 -1.2,-1.2 -1.7,-2.5 -1.6,-3.9 0,-1.5 0.5,-2.8 1.6,-3.9 1.1,-1.1 2.4,-1.6 3.9,-1.6 1.5,-0.1 2.8,0.4 4,1.5 5,5 7.4,11 7.4,18.2 0,7.1 -2.6,13.1 -7.6,18.1 -5.1,5 -11.1,7.6 -18.2,7.6 -6.7,-0.1 -12.5,-2.4 -17.5,-6.9 l -0.1,-0.1 -0.9,-0.9 -0.1,-0.1 c -2.4,-2.5 -4.2,-5.2 -5.3,-8.2 -1.1,-3 -1.8,-6.1 -1.9,-9.6 0,-0.9 0.1,-1.5 0.2,-2 0,-0.8 0.1,-1.5 0.4,-2.1 0.3,-0.6 0.8,-1.2 1.4,-1.7 1.3,-1 2.6,-1.5 4.2,-1.3 z"
   transform="translate(-74.3,-120.69)"
   style="opacity:1;fill:#7f00e0;fill-rule:nonzero;stroke:none;stroke-width:1;stroke-linecap:butt;stroke-linejoin:miter;stroke-miterlimit:4;stroke-dasharray:none;stroke-dashoffset:0" />
</g>
		<g
   id="g23"
   transform="translate(-17.95,27.19)">
<path
   id="path21"
   d="m 56.9,96.4 c 1.5,-0.1 2.8,0.4 3.9,1.6 l 0.4,0.4 c 1.1,1.1 1.6,2.4 1.7,4 -0.1,1.5 -0.7,2.9 -1.7,3.9 -1,1 -2.3,1.6 -3.9,1.7 -1.6,-0.1 -2.9,-0.7 -4,-1.8 l -0.4,-0.4 c -1.1,-1.1 -1.7,-2.4 -1.7,-3.8 0.1,-1.6 0.6,-3 1.7,-4 1.1,-1 2.4,-1.6 4,-1.6 z"
   transform="translate(-57.05,-102.19)"
   style="opacity:1;fill:#7f00e0;fill-rule:nonzero;stroke:none;stroke-width:1;stroke-linecap:butt;stroke-linejoin:miter;stroke-miterlimit:4;stroke-dasharray:none;stroke-dashoffset:0" />
</g>
		<g
   id="g27"
   transform="translate(-30.98,0.55)">
<path
   id="path25"
   d="M 80.4,87.7 66.1,73.4 C 66,73.3 65.9,73.2 65.8,73.1 L 49.6,57 c -2.5,-2.4 -5.3,-4.1 -8.2,-5.4 -2.9,-1.2 -6.2,-1.8 -9.7,-1.8 -7,0 -13.1,2.5 -18.1,7.6 C 11.1,60 9.2,62.8 8,66 c -1.2,3.2 -1.9,6.4 -1.9,9.6 0,3.3 0.6,6.5 1.9,9.7 1.3,3.2 3.1,6 5.6,8.5 5,5 11.1,7.5 18.2,7.5 6.5,0.1 12.3,-2 17.2,-6.4 l 1,-1 0.8,-1 c 1.8,-2.1 3,-3.9 3.6,-5.5 0.6,-1.6 0.7,-3 0.4,-4.1 -0.3,-1.1 -0.9,-2 -1.8,-2.6 -0.9,-0.6 -1.9,-0.9 -2.9,-1 -1,-0.1 -2.1,0.1 -3.1,0.6 -1,0.5 -1.8,1.2 -2.4,2.2 -0.4,0.8 -1,1.7 -1.9,2.7 l -1.5,1.5 C 38.7,89 35.6,90.1 31.8,90 27.7,90 24.2,88.6 21.5,85.8 20.1,84.4 19,82.8 18.3,81 c -0.7,-1.8 -1.1,-3.6 -1.1,-5.5 0,-1.9 0.4,-3.7 1.1,-5.5 0.7,-1.8 1.8,-3.4 3.2,-4.8 2.9,-2.9 6.3,-4.3 10.3,-4.2 3.9,-0.1 7.2,1.2 10,4 l 16,16.1 c 0.3,0.3 0.7,0.6 1.1,0.9 l 13.6,13.6 c 1,1 2.4,1.5 4,1.5 1.6,0 2.9,-0.5 3.9,-1.5 1.2,-1.2 1.7,-2.5 1.5,-4 0,-1.6 -0.5,-2.9 -1.5,-3.9 z"
   transform="translate(-44.02,-75.55)"
   style="opacity:1;fill:#170029;fill-rule:nonzero;stroke:none;stroke-width:1;stroke-linecap:butt;stroke-linejoin:miter;stroke-miterlimit:4;stroke-dasharray:none;stroke-dashoffset:0" />
</g>
</g>
</g>
<g
   id="9ff5925f-b6c7-43a8-8d96-cb4385610da1"
   transform="matrix(1.47,0,0,1.47,459.5,462.14)">
		<g
   id="text34"
   style="font-style:normal;font-weight:normal;font-size:30px;font-family:en_3693dd1c;white-space:pre;opacity:1;fill:#170029;fill-rule:nonzero;stroke:#ffffff;stroke-width:1;stroke-linecap:butt;stroke-linejoin:miter;stroke-miterlimit:4;stroke-dasharray:none;stroke-dashoffset:0;stroke-opacity:0"
   aria-label="Sina"><path
     id="path43"
     style=""
     d="m -20.490002,1.4400001 c 0,-1.53000002 -0.63,-2.67 -1.89,-3.45 -0.87,-0.54 -2.4,-1.02 -4.53,-1.47 -1.47,-0.3 -2.34,-0.48 -2.55,-0.54 -1.53,-0.33 -2.67,-0.78 -3.42,-1.29 -1.05,-0.72 -1.56,-1.71 -1.56,-2.94 0,-1.74 1.29,-2.6100001 3.84,-2.6100001 1.05,0 2.16,0.12 3.27,0.36 l -0.27,-7.02 c -0.57,-0.03 -1.26,-0.03 -2.13,-0.03 -4.05,0 -7.32,0.54 -9.84,1.62 -3.27,1.41 -4.92,3.6 -4.92,6.6000001 0,1.23 0.3,2.19 0.9,2.91 0.45,0.57 1.2,1.08 2.25,1.53 l 2.97,1.2 c 1.02,0.42 1.53,0.99 1.53,1.71 0,0.81 -0.84,1.52999998 -2.49,2.09999998 -1.23,0.39 -2.61,0.66 -4.17,0.81 l 1.53,8.46000002 c 4.95,-0.21 9.27,-0.78 12.96,-1.71 5.67,-1.44 8.52,-3.51 8.52,-6.24 z" /><path
     id="path45"
     style=""
     d="m -18.066564,-17.55 -1.35,26.0400001 9.5999998,0.87 0.21,-26.7600001 z" /><path
     id="path47"
     style=""
     d="m 10.142342,-16.68 -0.8699999,12.3000001 -6.87,-12.6600001 -9.51,2.07 -0.51,23.7300001 8.06999997,-0.84 0.21,-11.67 L 8.2223421,10.89 18.272342,8.9400001 18.962342,-17.25 Z" /><path
     id="path49"
     style=""
     d="m 36.830155,-17.64 -7.23,0.51 -11.22,25.5000001 7.02,0.81 2.4,-6.72 4.17,0.57 -0.12,6.42 12.36,-2.31 z m -4.74,17.34000008 -3.39,0.12 3.6,-10.08000008 z" /></g>
</g>
</svg>